[
{"title": "銀座本店",
"businessHour": "平日　12：00～21：00<br>土日祝　10：00～19：00<br>",
	"closed": "なし",
	"tel": "0120-360-286",
"lat": 35.672817,
"lng":139.764473

},


{"title": "銀座プレミア店",
"businessHour": "平日　12：00～21：00<br>土日祝　10：00～19：00<br>",
	"closed": "なし",
	"tel": "0120-360-286",
"lat": 35.671603,
"lng":139.762623

}


]
