[
{"title": "池袋店",
"businessHour": "平日　12：00～21：00<br>土日祝　10：00～19：00<br>",
	"closed": "なし",
	"tel": "0120-360-286",
"lat": 35.727434,
"lng":139.712153

},


{"title": "池袋サンシャイン通り店",
"businessHour": "平日　12：00～21：00<br>土日祝　10：00～19：00<br>",
	"closed": "なし",
	"tel": "0120-360-286",
"lat": 35.730398,
"lng":139.713417

}


]