[
{"title": "名古屋駅前店",
"businessHour": "平日　12：00～21：00<br>土日祝　10：00～19：00<br>",
	"closed": "なし",
	"tel": "0120-360-286",
"lat": 35.168425,
"lng":136.886617

},


{"title": "名古屋栄店",
"businessHour": "平日　12：00～21：00<br>土日祝　10：00～19：00<br>",
	"closed": "なし",
	"tel": "0120-360-286",
"lat": 35.172098,
"lng":136.906176

},


{"title": "金山店",
"businessHour": "平日　12：00～21：00<br>土日祝　10：00～19：00<br>",
	"closed": "なし",
	"tel": "0120-360-286",
"lat": 35.143586,
"lng":136.902973

}


]