[
{"title": "立川店",
"businessHour": "平日　12：00～21：00<br>土日祝　10：00～19：00<br>",
	"closed": "なし",
	"tel": "0120-360-286",
"lat": 35.696391,
"lng":139.414099

},


{"title": "立川北口店",
"businessHour": "平日　12：00～21：00<br>土日祝　10：00～19：00<br>",
	"closed": "なし",
	"tel": "0120-360-286",
"lat": 35.698547,
"lng":139.410485

}


]