[
{"title": "新潟アルタ店",
  "businessHour": "平日　11：00～20：00<br>土日祝　10：00～20：00",
	"closed": "無し",
	"tel": "0120-360-286",
"lat": 37.916053,
"lng": 139.056182

},


{"title": "渋谷道玄坂店",
  "businessHour": "平日　12：00～21：00<br>土日祝　10：00～19：00",
	"closed": "無し",
	"tel": "0120360286",
"lat": 35.658688,
"lng": 139.697828

}


]
