[
{"title": "渋谷109前店",
"businessHour": "平日　12：00～21：00<br>土日祝　10：00～19：00<br>",
	"closed": "なし",
	"tel": "0120-360-286",
"lat": 35.659994,
"lng":139.69884

},


{"title": "渋谷道玄坂店",
"businessHour": "平日　12：00～21：00<br>土日祝　10：00～19：00<br>",
	"closed": "なし",
	"tel": "0120-360-286",
"lat": 35.658688,
"lng":139.697828

}


]
